[gd_resource type="SpriteFrames" load_steps=4 format=2]

[ext_resource path="res://sprites/alive32_06.png" type="Texture" id=1]
[ext_resource path="res://sprites/alive32_05.png" type="Texture" id=2]
[ext_resource path="res://sprites/alive32_04.png" type="Texture" id=3]

[resource]
animations = [ {
"frames": [ ExtResource( 3 ) ],
"loop": false,
"name": "idle",
"speed": 5.0
}, {
"frames": [ ExtResource( 3 ), ExtResource( 2 ), ExtResource( 1 ), ExtResource( 2 ), ExtResource( 1 ), ExtResource( 2 ), ExtResource( 3 ), ExtResource( 3 ) ],
"loop": false,
"name": "beat",
"speed": 5.0
} ]
