[gd_scene load_steps=4 format=2]

[ext_resource path="res://sprites/exit.png" type="Texture" id=1]
[ext_resource path="res://RealExit.gd" type="Script" id=2]

[sub_resource type="CircleShape2D" id=1]
radius = 7.0

[node name="Area2D" type="Area2D"]
collision_layer = 64
script = ExtResource( 2 )

[node name="Sprite" type="Sprite" parent="."]
texture = ExtResource( 1 )

[node name="CollisionShape2D" type="CollisionShape2D" parent="."]
shape = SubResource( 1 )
[connection signal="area_entered" from="." to="." method="_on_Area2D_area_entered"]
